EESchema Schematic File Version 4
EELAYER 30 0
EELAYER END
$Descr A4 11693 8268
encoding utf-8
Sheet 1 1
Title ""
Date ""
Rev ""
Comp ""
Comment1 ""
Comment2 ""
Comment3 ""
Comment4 ""
$EndDescr
$Comp
L MCU_Microchip_ATmega:ATmega48P-20PU U1
U 1 1 5E86E62E
P 2950 3600
F 0 "U1" H 2306 3646 50  0000 R CNN
F 1 "ATmega48P-20PU" H 2306 3555 50  0000 R CNN
F 2 "Package_DIP:DIP-28_W7.62mm" H 2950 3600 50  0001 C CIN
F 3 "http://ww1.microchip.com/downloads/en/DeviceDoc/Atmel-8025-8-bit-AVR-Microcontroller-ATmega48P-88P-168P_Datasheet.pdf" H 2950 3600 50  0001 C CNN
	1    2950 3600
	1    0    0    -1  
$EndComp
$Comp
L Connector_Generic:Conn_01x03 J3
U 1 1 5E87033E
P 5200 4200
F 0 "J3" H 5280 4242 50  0000 L CNN
F 1 "UART" H 5280 4151 50  0000 L CNN
F 2 "Connector_PinHeader_2.54mm:PinHeader_1x03_P2.54mm_Vertical" H 5200 4200 50  0001 C CNN
F 3 "~" H 5200 4200 50  0001 C CNN
	1    5200 4200
	1    0    0    -1  
$EndComp
Wire Wire Line
	5000 4100 3550 4100
Wire Wire Line
	3550 4200 5000 4200
$Comp
L power:GND #PWR04
U 1 1 5E872FA2
P 4900 4400
F 0 "#PWR04" H 4900 4150 50  0001 C CNN
F 1 "GND" H 4905 4227 50  0000 C CNN
F 2 "" H 4900 4400 50  0001 C CNN
F 3 "" H 4900 4400 50  0001 C CNN
	1    4900 4400
	1    0    0    -1  
$EndComp
Wire Wire Line
	4900 4400 4900 4300
Wire Wire Line
	4900 4300 5000 4300
Text Label 4150 4100 0    50   ~ 0
UART_Rx
Text Label 4150 4200 0    50   ~ 0
UART_Tx
$Comp
L Device:LED_Dual_ACA D1
U 1 1 5E87544E
P 4250 4800
F 0 "D1" H 4250 4453 50  0000 C CNN
F 1 "LED_Dual_ACA" H 4250 4544 50  0000 C CNN
F 2 "LED_THT:LED_D3.0mm-3" H 4250 4800 50  0001 C CNN
F 3 "~" H 4250 4800 50  0001 C CNN
	1    4250 4800
	-1   0    0    1   
$EndComp
$Comp
L power:GND #PWR05
U 1 1 5E878271
P 4650 4900
F 0 "#PWR05" H 4650 4650 50  0001 C CNN
F 1 "GND" H 4655 4727 50  0000 C CNN
F 2 "" H 4650 4900 50  0001 C CNN
F 3 "" H 4650 4900 50  0001 C CNN
	1    4650 4900
	1    0    0    -1  
$EndComp
Wire Wire Line
	4650 4900 4650 4800
Wire Wire Line
	4650 4800 4550 4800
Wire Wire Line
	3950 4700 3550 4700
Wire Wire Line
	3550 4800 3750 4800
Wire Wire Line
	3750 4800 3750 4900
Wire Wire Line
	3750 4900 3950 4900
$Comp
L power:GND #PWR06
U 1 1 5E88C1AD
P 2950 5200
F 0 "#PWR06" H 2950 4950 50  0001 C CNN
F 1 "GND" H 2955 5027 50  0000 C CNN
F 2 "" H 2950 5200 50  0001 C CNN
F 3 "" H 2950 5200 50  0001 C CNN
	1    2950 5200
	1    0    0    -1  
$EndComp
Wire Wire Line
	2950 5100 2950 5200
$Comp
L Device:C C1
U 1 1 5E88D7E3
P 2650 1550
F 0 "C1" H 2765 1596 50  0000 L CNN
F 1 "C" H 2765 1505 50  0000 L CNN
F 2 "" H 2688 1400 50  0001 C CNN
F 3 "~" H 2650 1550 50  0001 C CNN
	1    2650 1550
	0    -1   -1   0   
$EndComp
Wire Wire Line
	3050 2100 3050 1550
Wire Wire Line
	3050 1550 2950 1550
Wire Wire Line
	2950 2100 2950 1550
Connection ~ 2950 1550
Wire Wire Line
	2950 1550 2800 1550
$Comp
L power:GND #PWR01
U 1 1 5E890357
P 2400 1650
F 0 "#PWR01" H 2400 1400 50  0001 C CNN
F 1 "GND" H 2405 1477 50  0000 C CNN
F 2 "" H 2400 1650 50  0001 C CNN
F 3 "" H 2400 1650 50  0001 C CNN
	1    2400 1650
	1    0    0    -1  
$EndComp
Wire Wire Line
	2400 1650 2400 1550
Wire Wire Line
	2400 1550 2500 1550
Text GLabel 3750 4300 2    50   Output ~ 0
Tel_C
Wire Wire Line
	3750 4300 3550 4300
Text GLabel 3750 4400 2    50   Output ~ 0
Tel_O
Wire Wire Line
	3750 4400 3550 4400
$Comp
L Connector_Generic:Conn_01x02 J2
U 1 1 5E89D771
P 7650 4150
F 0 "J2" H 7730 4142 50  0000 L CNN
F 1 "dial" H 7730 4051 50  0000 L CNN
F 2 "Connector_PinHeader_2.54mm:PinHeader_1x02_P2.54mm_Vertical" H 7650 4150 50  0001 C CNN
F 3 "~" H 7650 4150 50  0001 C CNN
	1    7650 4150
	1    0    0    -1  
$EndComp
Text GLabel 7100 4150 0    50   Input ~ 0
Tel_C
Text GLabel 7100 4250 0    50   Input ~ 0
Tel_O
Wire Wire Line
	7100 4250 7450 4250
Wire Wire Line
	7450 4150 7100 4150
$Comp
L Connector_Generic:Conn_02x03_Odd_Even J1
U 1 1 5E954484
P 10150 1100
F 0 "J1" H 10200 1417 50  0000 C CNN
F 1 "JTAG_CONN" H 10200 1326 50  0000 C CNN
F 2 "Connector_PinSocket_2.54mm:PinSocket_2x03_P2.54mm_Vertical" H 10150 1100 50  0001 C CNN
F 3 "~" H 10150 1100 50  0001 C CNN
	1    10150 1100
	1    0    0    -1  
$EndComp
Text GLabel 9650 1000 0    50   Output ~ 0
PB3
Wire Wire Line
	9650 1000 9950 1000
Text GLabel 9650 1100 0    50   Output ~ 0
PB5
Text GLabel 9650 1200 0    50   Output ~ 0
JTAG_RST
Text GLabel 3750 3900 2    50   Input ~ 0
JTAG_RST
Wire Wire Line
	3750 3900 3550 3900
Wire Wire Line
	9650 1200 9950 1200
Wire Wire Line
	9950 1100 9650 1100
$Comp
L power:GND #PWR02
U 1 1 5E95E72B
P 10600 1300
F 0 "#PWR02" H 10600 1050 50  0001 C CNN
F 1 "GND" H 10605 1127 50  0000 C CNN
F 2 "" H 10600 1300 50  0001 C CNN
F 3 "" H 10600 1300 50  0001 C CNN
	1    10600 1300
	1    0    0    -1  
$EndComp
Wire Wire Line
	10600 1300 10600 1200
Wire Wire Line
	10600 1200 10450 1200
Text GLabel 10600 1100 2    50   Input ~ 0
PB4
Wire Wire Line
	10600 1100 10450 1100
$Comp
L Connector:Conn_01x14_Male J?
U 1 1 6207CF2E
P 4850 2150
F 0 "J?" H 4822 2124 50  0000 R CNN
F 1 "Keyboard" H 4822 2033 50  0000 R CNN
F 2 "" H 4850 2150 50  0001 C CNN
F 3 "~" H 4850 2150 50  0001 C CNN
	1    4850 2150
	-1   0    0    -1  
$EndComp
Entry Wire Line
	4150 2150 4250 2250
Entry Wire Line
	4150 2250 4250 2350
Entry Wire Line
	4150 2350 4250 2450
Entry Wire Line
	4150 2450 4250 2550
Entry Wire Line
	4150 2550 4250 2650
Entry Wire Line
	4150 2650 4250 2750
Entry Wire Line
	4150 2750 4250 2850
Entry Wire Line
	4150 1650 4250 1750
Entry Wire Line
	4150 1750 4250 1850
Entry Wire Line
	4150 1850 4250 1950
Entry Wire Line
	4150 1950 4250 2050
Entry Wire Line
	4150 2050 4250 2150
Entry Wire Line
	4050 2400 4150 2300
Wire Wire Line
	4050 2400 3550 2400
Wire Wire Line
	4250 1750 4650 1750
Wire Wire Line
	4250 1850 4650 1850
Wire Wire Line
	4250 1950 4650 1950
Wire Wire Line
	4250 2050 4650 2050
Wire Wire Line
	4250 2150 4650 2150
Wire Wire Line
	4250 2250 4650 2250
Wire Wire Line
	4250 2350 4650 2350
Wire Wire Line
	4250 2450 4650 2450
Wire Wire Line
	4250 2550 4650 2550
Wire Wire Line
	4250 2650 4650 2650
Wire Wire Line
	4250 2750 4650 2750
Wire Wire Line
	4250 2850 4650 2850
Entry Wire Line
	4050 2500 4150 2400
Entry Wire Line
	4050 2500 4150 2400
Entry Wire Line
	4050 2600 4150 2500
Entry Wire Line
	4050 2700 4150 2600
Entry Wire Line
	4050 2800 4150 2700
Entry Wire Line
	4050 2900 4150 2800
Entry Wire Line
	4050 3000 4150 2900
Entry Wire Line
	4050 3100 4150 3000
Entry Wire Line
	4050 3300 4150 3200
Entry Wire Line
	4050 3400 4150 3300
Entry Wire Line
	4050 3500 4150 3400
Entry Wire Line
	4050 3600 4150 3500
Wire Wire Line
	4050 2500 3550 2500
Wire Wire Line
	3550 2600 4050 2600
Wire Wire Line
	3550 2700 4050 2700
Wire Wire Line
	3550 2800 4050 2800
Wire Wire Line
	3550 2900 4050 2900
Wire Wire Line
	3550 3000 4050 3000
Wire Wire Line
	3550 3100 4050 3100
Wire Wire Line
	4050 3300 3550 3300
Wire Wire Line
	4050 3400 3550 3400
Wire Wire Line
	4050 3500 3550 3500
Wire Wire Line
	3550 3600 4050 3600
$Comp
L power:GND #PWR?
U 1 1 620D5C9D
P 4350 1550
F 0 "#PWR?" H 4350 1300 50  0001 C CNN
F 1 "GND" H 4355 1377 50  0000 C CNN
F 2 "" H 4350 1550 50  0001 C CNN
F 3 "" H 4350 1550 50  0001 C CNN
	1    4350 1550
	1    0    0    -1  
$EndComp
Wire Wire Line
	4350 1550 4650 1550
Wire Bus Line
	4150 1300 4150 3600
$EndSCHEMATC
